{
  "port":3304,
  "mongoose": {
    "url": "mongodb://52.169.14.118/devapp",
    "options": {
      "user": "devapp",
      "pass": "devapppwd"
    }
  },
  "postfixHost": "mail.teamsearch.pro",
  "postfixPort": 2525,
  "domain": "localhost:3304"
}